<mxfile host="app.diagrams.net" modified="2020-10-18T21:02:51.440Z" agent="5.0 (X11)" etag="7w22ouUSvddlu3qd8jtW" version="13.8.0" type="gitlab">
  <diagram id="O01vWLIQ2mCMujsiiFyD" name="Page-1">
    <mxGraphModel dx="1422" dy="774" grid="1" gridSize="10" guides="1" tooltips="1" connect="1" arrows="1" fold="1" page="1" pageScale="1" pageWidth="1100" pageHeight="850" math="0" shadow="0" extFonts="Permanent Marker^https://fonts.googleapis.com/css?family=Permanent+Marker">
      <root>
        <mxCell id="0" />
        <mxCell id="1" parent="0" />
        <mxCell id="D8rdM_GXJCwN6-14btg_-1" value="Analyzing" style="ellipse;whiteSpace=wrap;html=1;" parent="1" vertex="1">
          <mxGeometry x="120" y="290" width="120" height="50" as="geometry" />
        </mxCell>
        <mxCell id="D8rdM_GXJCwN6-14btg_-2" value="System" style="rounded=0;whiteSpace=wrap;html=1;" parent="1" vertex="1">
          <mxGeometry x="130" y="220" width="100" height="40" as="geometry" />
        </mxCell>
        <mxCell id="D8rdM_GXJCwN6-14btg_-3" value="" style="endArrow=classic;startArrow=classic;html=1;entryX=0.5;entryY=1;entryDx=0;entryDy=0;" parent="1" source="D8rdM_GXJCwN6-14btg_-1" target="D8rdM_GXJCwN6-14btg_-2" edge="1">
          <mxGeometry width="50" height="50" relative="1" as="geometry">
            <mxPoint x="500" y="460" as="sourcePoint" />
            <mxPoint x="550" y="410" as="targetPoint" />
          </mxGeometry>
        </mxCell>
        <mxCell id="D8rdM_GXJCwN6-14btg_-5" value="Software Analysis" style="ellipse;whiteSpace=wrap;html=1;" parent="1" vertex="1">
          <mxGeometry x="300" y="290" width="120" height="50" as="geometry" />
        </mxCell>
        <mxCell id="D8rdM_GXJCwN6-14btg_-6" value="System Software&lt;br&gt;Representation" style="rounded=0;whiteSpace=wrap;html=1;" parent="1" vertex="1">
          <mxGeometry x="310" y="220" width="100" height="40" as="geometry" />
        </mxCell>
        <mxCell id="D8rdM_GXJCwN6-14btg_-7" value="" style="endArrow=classic;startArrow=classic;html=1;entryX=0.5;entryY=1;entryDx=0;entryDy=0;" parent="1" source="D8rdM_GXJCwN6-14btg_-5" target="D8rdM_GXJCwN6-14btg_-6" edge="1">
          <mxGeometry width="50" height="50" relative="1" as="geometry">
            <mxPoint x="680" y="460" as="sourcePoint" />
            <mxPoint x="730" y="410" as="targetPoint" />
          </mxGeometry>
        </mxCell>
        <mxCell id="D8rdM_GXJCwN6-14btg_-8" value="Bench Testing" style="ellipse;whiteSpace=wrap;html=1;" parent="1" vertex="1">
          <mxGeometry x="300" y="450" width="120" height="50" as="geometry" />
        </mxCell>
        <mxCell id="D8rdM_GXJCwN6-14btg_-9" value="System Hardware" style="rounded=0;whiteSpace=wrap;html=1;" parent="1" vertex="1">
          <mxGeometry x="310" y="380" width="100" height="40" as="geometry" />
        </mxCell>
        <mxCell id="D8rdM_GXJCwN6-14btg_-10" value="" style="endArrow=classic;startArrow=classic;html=1;entryX=0.5;entryY=1;entryDx=0;entryDy=0;" parent="1" source="D8rdM_GXJCwN6-14btg_-8" target="D8rdM_GXJCwN6-14btg_-9" edge="1">
          <mxGeometry width="50" height="50" relative="1" as="geometry">
            <mxPoint x="680" y="620" as="sourcePoint" />
            <mxPoint x="730" y="570" as="targetPoint" />
          </mxGeometry>
        </mxCell>
        <mxCell id="D8rdM_GXJCwN6-14btg_-11" value="" style="endArrow=none;html=1;exitX=0;exitY=0.5;exitDx=0;exitDy=0;entryX=1;entryY=0.5;entryDx=0;entryDy=0;jumpStyle=gap;jumpSize=8;sketch=0;shadow=0;" parent="1" source="D8rdM_GXJCwN6-14btg_-5" target="D8rdM_GXJCwN6-14btg_-1" edge="1">
          <mxGeometry width="50" height="50" relative="1" as="geometry">
            <mxPoint x="470" y="410" as="sourcePoint" />
            <mxPoint x="262" y="315" as="targetPoint" />
          </mxGeometry>
        </mxCell>
        <mxCell id="D8rdM_GXJCwN6-14btg_-16" value="Modelling" style="ellipse;whiteSpace=wrap;html=1;" parent="1" vertex="1">
          <mxGeometry x="660" y="290" width="120" height="50" as="geometry" />
        </mxCell>
        <mxCell id="D8rdM_GXJCwN6-14btg_-17" value="&lt;div&gt;System &lt;br&gt;&lt;/div&gt;&lt;div&gt;Software&lt;br&gt;&lt;/div&gt;" style="rounded=0;whiteSpace=wrap;html=1;" parent="1" vertex="1">
          <mxGeometry x="670" y="220" width="100" height="40" as="geometry" />
        </mxCell>
        <mxCell id="D8rdM_GXJCwN6-14btg_-18" value="" style="endArrow=classic;startArrow=classic;html=1;entryX=0.5;entryY=1;entryDx=0;entryDy=0;" parent="1" source="D8rdM_GXJCwN6-14btg_-16" target="D8rdM_GXJCwN6-14btg_-17" edge="1">
          <mxGeometry width="50" height="50" relative="1" as="geometry">
            <mxPoint x="1040" y="460" as="sourcePoint" />
            <mxPoint x="1090" y="410" as="targetPoint" />
          </mxGeometry>
        </mxCell>
        <mxCell id="D8rdM_GXJCwN6-14btg_-12" value="" style="endArrow=block;html=1;exitX=0;exitY=0.5;exitDx=0;exitDy=0;endFill=0;endSize=7;" parent="1" source="D8rdM_GXJCwN6-14btg_-8" edge="1">
          <mxGeometry width="50" height="50" relative="1" as="geometry">
            <mxPoint x="260" y="490" as="sourcePoint" />
            <mxPoint x="260" y="310" as="targetPoint" />
            <Array as="points">
              <mxPoint x="260" y="475" />
            </Array>
          </mxGeometry>
        </mxCell>
        <mxCell id="D8rdM_GXJCwN6-14btg_-19" value="&lt;div&gt;Verification&lt;/div&gt;" style="ellipse;whiteSpace=wrap;html=1;" parent="1" vertex="1">
          <mxGeometry x="480" y="430" width="120" height="50" as="geometry" />
        </mxCell>
        <mxCell id="D8rdM_GXJCwN6-14btg_-24" value="" style="endArrow=none;html=1;exitX=0;exitY=0.5;exitDx=0;exitDy=0;entryX=1;entryY=0.5;entryDx=0;entryDy=0;jumpStyle=gap;jumpSize=8;sketch=0;shadow=0;" parent="1" edge="1" source="D8rdM_GXJCwN6-14btg_-16">
          <mxGeometry width="50" height="50" relative="1" as="geometry">
            <mxPoint x="480" y="315" as="sourcePoint" />
            <mxPoint x="420" y="315" as="targetPoint" />
          </mxGeometry>
        </mxCell>
        <mxCell id="D8rdM_GXJCwN6-14btg_-25" value="" style="endArrow=block;html=1;exitX=0;exitY=0.5;exitDx=0;exitDy=0;endFill=0;endSize=7;" parent="1" source="D8rdM_GXJCwN6-14btg_-19" edge="1">
          <mxGeometry width="50" height="50" relative="1" as="geometry">
            <mxPoint x="480" y="475" as="sourcePoint" />
            <mxPoint x="440" y="310" as="targetPoint" />
            <Array as="points">
              <mxPoint x="440" y="455" />
            </Array>
          </mxGeometry>
        </mxCell>
        <mxCell id="X7uvy0L-Vovcl2pn4gD8-7" value="" style="edgeStyle=orthogonalEdgeStyle;rounded=0;orthogonalLoop=1;jettySize=auto;html=1;endArrow=none;endFill=0;entryX=1;entryY=0.5;entryDx=0;entryDy=0;" parent="1" source="D8rdM_GXJCwN6-14btg_-26" target="D8rdM_GXJCwN6-14btg_-16" edge="1">
          <mxGeometry relative="1" as="geometry">
            <mxPoint x="860" y="315" as="targetPoint" />
          </mxGeometry>
        </mxCell>
        <mxCell id="D8rdM_GXJCwN6-14btg_-26" value="Iterative Simulation" style="ellipse;whiteSpace=wrap;html=1;" parent="1" vertex="1">
          <mxGeometry x="840" y="290" width="120" height="50" as="geometry" />
        </mxCell>
        <mxCell id="D8rdM_GXJCwN6-14btg_-27" value="Numerical Simulation" style="ellipse;whiteSpace=wrap;html=1;" parent="1" vertex="1">
          <mxGeometry x="840" y="350" width="120" height="50" as="geometry" />
        </mxCell>
        <mxCell id="D8rdM_GXJCwN6-14btg_-28" value="System Models" style="rounded=0;whiteSpace=wrap;html=1;" parent="1" vertex="1">
          <mxGeometry x="850" y="220" width="100" height="40" as="geometry" />
        </mxCell>
        <mxCell id="D8rdM_GXJCwN6-14btg_-29" value="" style="endArrow=classic;startArrow=classic;html=1;entryX=0.5;entryY=1;entryDx=0;entryDy=0;" parent="1" target="D8rdM_GXJCwN6-14btg_-28" edge="1">
          <mxGeometry width="50" height="50" relative="1" as="geometry">
            <mxPoint x="900" y="290" as="sourcePoint" />
            <mxPoint x="1270" y="410" as="targetPoint" />
          </mxGeometry>
        </mxCell>
        <mxCell id="D8rdM_GXJCwN6-14btg_-32" value="" style="endArrow=block;html=1;exitX=0;exitY=0.5;exitDx=0;exitDy=0;endFill=0;endSize=7;" parent="1" source="D8rdM_GXJCwN6-14btg_-27" edge="1">
          <mxGeometry width="50" height="50" relative="1" as="geometry">
            <mxPoint x="840" y="475" as="sourcePoint" />
            <mxPoint x="800" y="310" as="targetPoint" />
            <Array as="points">
              <mxPoint x="800" y="375" />
            </Array>
          </mxGeometry>
        </mxCell>
        <mxCell id="X7uvy0L-Vovcl2pn4gD8-1" value="Emulation" style="ellipse;whiteSpace=wrap;html=1;" parent="1" vertex="1">
          <mxGeometry x="840" y="410" width="120" height="50" as="geometry" />
        </mxCell>
        <mxCell id="X7uvy0L-Vovcl2pn4gD8-2" value="" style="endArrow=block;html=1;exitX=-0.008;exitY=0.38;exitDx=0;exitDy=0;endFill=0;endSize=7;exitPerimeter=0;" parent="1" source="X7uvy0L-Vovcl2pn4gD8-1" edge="1">
          <mxGeometry width="50" height="50" relative="1" as="geometry">
            <mxPoint x="850" y="385" as="sourcePoint" />
            <mxPoint x="800" y="310" as="targetPoint" />
            <Array as="points">
              <mxPoint x="800" y="429" />
            </Array>
          </mxGeometry>
        </mxCell>
        <mxCell id="X7uvy0L-Vovcl2pn4gD8-4" value="&lt;div&gt;Controlled System Interfaces&lt;/div&gt;" style="rounded=0;whiteSpace=wrap;html=1;" parent="1" vertex="1">
          <mxGeometry x="670" y="360" width="100" height="40" as="geometry" />
        </mxCell>
        <mxCell id="X7uvy0L-Vovcl2pn4gD8-5" value="Verification" style="ellipse;whiteSpace=wrap;html=1;" parent="1" vertex="1">
          <mxGeometry x="660" y="430" width="120" height="50" as="geometry" />
        </mxCell>
        <mxCell id="X7uvy0L-Vovcl2pn4gD8-6" value="Replication" style="ellipse;whiteSpace=wrap;html=1;" parent="1" vertex="1">
          <mxGeometry x="660" y="500" width="120" height="50" as="geometry" />
        </mxCell>
        <mxCell id="X7uvy0L-Vovcl2pn4gD8-8" value="" style="edgeStyle=orthogonalEdgeStyle;rounded=0;orthogonalLoop=1;jettySize=auto;html=1;exitX=0;exitY=0.5;exitDx=0;exitDy=0;endArrow=none;endFill=0;" parent="1" source="X7uvy0L-Vovcl2pn4gD8-5" target="D8rdM_GXJCwN6-14btg_-19" edge="1">
          <mxGeometry relative="1" as="geometry">
            <mxPoint x="668" y="195" as="sourcePoint" />
            <mxPoint x="608" y="195" as="targetPoint" />
          </mxGeometry>
        </mxCell>
        <mxCell id="X7uvy0L-Vovcl2pn4gD8-9" value="" style="endArrow=classic;startArrow=classic;html=1;entryX=0.5;entryY=1;entryDx=0;entryDy=0;exitX=0.5;exitY=0;exitDx=0;exitDy=0;" parent="1" source="X7uvy0L-Vovcl2pn4gD8-5" target="X7uvy0L-Vovcl2pn4gD8-4" edge="1">
          <mxGeometry width="50" height="50" relative="1" as="geometry">
            <mxPoint x="730" y="170" as="sourcePoint" />
            <mxPoint x="730" y="140" as="targetPoint" />
          </mxGeometry>
        </mxCell>
        <mxCell id="X7uvy0L-Vovcl2pn4gD8-10" value="" style="endArrow=block;html=1;exitX=0;exitY=0.5;exitDx=0;exitDy=0;endFill=0;endSize=7;" parent="1" source="X7uvy0L-Vovcl2pn4gD8-6" edge="1">
          <mxGeometry width="50" height="50" relative="1" as="geometry">
            <mxPoint x="670" y="255" as="sourcePoint" />
            <mxPoint x="620" y="450" as="targetPoint" />
            <Array as="points">
              <mxPoint x="620" y="525" />
            </Array>
          </mxGeometry>
        </mxCell>
        <mxCell id="X7uvy0L-Vovcl2pn4gD8-11" value="&lt;div&gt;System&lt;/div&gt;&lt;div&gt;Software&lt;br&gt;&lt;/div&gt;" style="rounded=0;whiteSpace=wrap;html=1;" parent="1" vertex="1">
          <mxGeometry x="490" y="360" width="100" height="40" as="geometry" />
        </mxCell>
        <mxCell id="X7uvy0L-Vovcl2pn4gD8-12" value="" style="endArrow=classic;startArrow=classic;html=1;entryX=0.5;entryY=1;entryDx=0;entryDy=0;" parent="1" source="D8rdM_GXJCwN6-14btg_-19" target="X7uvy0L-Vovcl2pn4gD8-11" edge="1">
          <mxGeometry width="50" height="50" relative="1" as="geometry">
            <mxPoint x="550" y="170" as="sourcePoint" />
            <mxPoint x="550" y="140" as="targetPoint" />
          </mxGeometry>
        </mxCell>
        <mxCell id="X7uvy0L-Vovcl2pn4gD8-13" value="Mocking" style="ellipse;whiteSpace=wrap;html=1;" parent="1" vertex="1">
          <mxGeometry x="660" y="570" width="120" height="50" as="geometry" />
        </mxCell>
        <mxCell id="X7uvy0L-Vovcl2pn4gD8-14" value="" style="endArrow=block;html=1;exitX=0;exitY=0.5;exitDx=0;exitDy=0;endFill=0;endSize=7;" parent="1" source="X7uvy0L-Vovcl2pn4gD8-13" edge="1">
          <mxGeometry width="50" height="50" relative="1" as="geometry">
            <mxPoint x="670" y="525" as="sourcePoint" />
            <mxPoint x="620" y="450" as="targetPoint" />
            <Array as="points">
              <mxPoint x="620" y="595" />
              <mxPoint x="620" y="530" />
            </Array>
          </mxGeometry>
        </mxCell>
        <mxCell id="X7uvy0L-Vovcl2pn4gD8-15" value="Validation" style="ellipse;whiteSpace=wrap;html=1;" parent="1" vertex="1">
          <mxGeometry x="480" y="570" width="120" height="50" as="geometry" />
        </mxCell>
        <mxCell id="X7uvy0L-Vovcl2pn4gD8-16" value="&lt;div&gt;System&lt;/div&gt;&lt;div&gt;Software&lt;br&gt;&lt;/div&gt;" style="rounded=0;whiteSpace=wrap;html=1;" parent="1" vertex="1">
          <mxGeometry x="490" y="500" width="100" height="40" as="geometry" />
        </mxCell>
        <mxCell id="X7uvy0L-Vovcl2pn4gD8-17" value="" style="endArrow=classic;startArrow=classic;html=1;entryX=0.5;entryY=1;entryDx=0;entryDy=0;" parent="1" source="X7uvy0L-Vovcl2pn4gD8-15" target="X7uvy0L-Vovcl2pn4gD8-16" edge="1">
          <mxGeometry width="50" height="50" relative="1" as="geometry">
            <mxPoint x="550" y="310" as="sourcePoint" />
            <mxPoint x="550" y="280" as="targetPoint" />
          </mxGeometry>
        </mxCell>
        <mxCell id="X7uvy0L-Vovcl2pn4gD8-18" value="" style="endArrow=block;html=1;exitX=0;exitY=0.5;exitDx=0;exitDy=0;endFill=0;endSize=7;" parent="1" source="X7uvy0L-Vovcl2pn4gD8-15" edge="1">
          <mxGeometry width="50" height="50" relative="1" as="geometry">
            <mxPoint x="490" y="595" as="sourcePoint" />
            <mxPoint x="440" y="310" as="targetPoint" />
            <Array as="points">
              <mxPoint x="440" y="595" />
            </Array>
          </mxGeometry>
        </mxCell>
      </root>
    </mxGraphModel>
  </diagram>
</mxfile>
